verilog/rtl/sar_adc_12bit_diff_tb.vcd
$date
	Thu Oct 10 03:41:35 2024
$end
$version
	Icarus Verilog
$end
$timescale
	1ps
$end
$scope module sar_adc_12bit_diff_tb $end
$var wire 1 ! samp_en $end
$var wire 12 " dout [11:0] $end
$var wire 12 # dac_code_p [11:0] $end
$var wire 12 $ dac_code_n [11:0] $end
$var reg 1 % clk $end
$var reg 1 & comp_out $end
$var real 1 ' Vdac_n $end
$var real 1 ( Vdac_p $end
$var real 1 ) Vin_n $end
$var real 1 * Vin_p $end
$var real 1 + Vref $end
$scope module uut $end
$var wire 1 % clk $end
$var wire 1 & comp_out $end
$var reg 4 , bit_cnt [3:0] $end
$var reg 1 - comp_delay $end
$var reg 12 . dac_code_n [11:0] $end
$var reg 12 / dac_code_p [11:0] $end
$var reg 12 0 dout [11:0] $end
$var reg 1 1 phase $end
$var reg 1 ! samp_en $end
$var reg 12 2 sar_reg [11:0] $end
$var reg 1 3 state $end
$upscope $end
$upscope $end
$enddefinitions $end
#0
$dumpvars
x3
bx 2
x1
bx 0
bx /
bx .
x-
bx ,
r3.3 +
r1.65 *
r0 )
r0 (
r0 '
x&
0%
bx $
bx #
bx "
x!
$end
#5000
03
1&
1%
#10000
0%
#15000
13
01
b0 $
b0 .
b0 #
b0 /
b0 2
b0 ,
1!
1%
#20000
0%
#25000
r3.3 '
11
1-
b111111111111 $
b111111111111 .
b100000000000 2
0!
1%
#30000
0%
#35000
01
b1 ,
1%
#40000
0%
#45000
r1.649597069597069 '
r1.65040293040293 (
11
b11111111111 $
b11111111111 .
b100000000000 #
b100000000000 /
b110000000000 2
1%
#50000
0%
#55000
01
b10 ,
1%
#60000
0%
#65000
r0.8243956043956043 '
r2.475604395604396 (
11
b1111111111 $
b1111111111 .
b110000000000 #
b110000000000 /
b111000000000 2
1%
#70000
0%
#75000
0&
01
b11 ,
1%
#80000
0%
#85000
r0.4117948717948718 '
r2.888205128205128 (
11
0-
b111111111 $
b111111111 .
b111000000000 #
b111000000000 /
b111100000000 2
1%
#90000
0%
#95000
01
b100 ,
b111000000000 2
1%
#100000
0%
#105000
11
b111010000000 2
1%
#110000
0%
#115000
01
b101 ,
b111000000000 2
1%
#120000
0%
#125000
11
b111001000000 2
1%
#130000
0%
#135000
01
b110 ,
b111000000000 2
1%
#140000
0%
#145000
11
b111000100000 2
1%
#150000
0%
#155000
01
b111 ,
b111000000000 2
1%
#160000
0%
#165000
11
b111000010000 2
1%
#170000
0%
#175000
01
b1000 ,
b111000000000 2
1%
#180000
0%
#185000
11
b111000001000 2
1%
#190000
0%
#195000
01
b1001 ,
b111000000000 2
1%
#200000
0%
#205000
11
b111000000100 2
1%
#210000
0%
#215000
01
b1010 ,
b111000000000 2
1%
#220000
0%
#225000
11
b111000000010 2
1%
#230000
0%
#235000
01
b1011 ,
b111000000000 2
1%
#240000
0%
#245000
11
b111000000001 2
1%
#250000
0%
#255000
01
03
b111000000001 "
b111000000001 0
b1100 ,
b111000000000 2
1%
#260000
0%
#265000
r0 '
r0 (
13
b0 $
b0 .
b0 #
b0 /
b0 2
b0 ,
1!
1%
#270000
0%
#275000
r3.3 '
11
b111111111111 $
b111111111111 .
b100000000000 2
0!
1%
#280000
0%
#285000
01
b1 ,
b0 2
1&
1%
#290000
0%
#295000
11
1-
b10000000000 2
1%
#300000
0%
#305000
01
b10 ,
1%
#310000
0%
#315000
r2.474798534798535 '
r0.8252014652014652 (
11
b101111111111 $
b101111111111 .
b10000000000 #
b10000000000 /
b11000000000 2
1%
#320000
0%
#325000
01
b11 ,
1%
#330000
0%
#335000
r2.062197802197802 '
r1.237802197802198 (
11
b100111111111 $
b100111111111 .
b11000000000 #
b11000000000 /
b11100000000 2
1%
#340000
0%
#345000
01
b100 ,
1%
#350000
0%
#355000
r1.855897435897436 '
r1.444102564102564 (
11
b100011111111 $
b100011111111 .
b11100000000 #
b11100000000 /
b11110000000 2
1%
#360000
0%
#365000
01
b101 ,
1%
#370000
0%
#375000
r1.752747252747253 '
r1.547252747252747 (
11
b100001111111 $
b100001111111 .
b11110000000 #
b11110000000 /
b11111000000 2
1%
#380000
0%
#385000
01
b110 ,
1%
#390000
0%
#395000
r1.701172161172161 '
r1.598827838827839 (
11
b100000111111 $
b100000111111 .
b11111000000 #
b11111000000 /
b11111100000 2
1%
#400000
0%
#405000
01
b111 ,
1%
#410000
0%
#415000
r1.675384615384615 '
r1.624615384615385 (
11
b100000011111 $
b100000011111 .
b11111100000 #
b11111100000 /
b11111110000 2
1%
#420000
0%
#425000
01
b1000 ,
1%
#430000
0%
#435000
r1.662490842490842 '
r1.637509157509157 (
11
b100000001111 $
b100000001111 .
b11111110000 #
b11111110000 /
b11111111000 2
1%
#440000
0%
#445000
01
b1001 ,
1%
#450000
0%
#455000
r1.656043956043956 '
r1.643956043956044 (
11
b100000000111 $
b100000000111 .
b11111111000 #
b11111111000 /
b11111111100 2
1%
#460000
0%
#465000
01
b1010 ,
1%
#470000
0%
#475000
r1.652820512820513 '
r1.647179487179487 (
11
b100000000011 $
b100000000011 .
b11111111100 #
b11111111100 /
b11111111110 2
1%
#480000
0%
#485000
01
b1011 ,
1%
#490000
0%
#495000
r1.651208791208791 '
r1.648791208791209 (
11
b100000000001 $
b100000000001 .
b11111111110 #
b11111111110 /
b11111111111 2
1%
#500000
0%
#505000
01
03
b11111111111 "
b11111111111 0
b1100 ,
1%
#510000
0%
#515000
r0 '
r0 (
13
b0 $
b0 .
b0 #
b0 /
b0 2
b0 ,
1!
1%
#520000
0%
#525000
r3.3 '
11
b111111111111 $
b111111111111 .
b100000000000 2
0!
1%
#530000
0%
#535000
01
b1 ,
1%
#540000
0%
#545000
r1.649597069597069 '
r1.65040293040293 (
11
b11111111111 $
b11111111111 .
b100000000000 #
b100000000000 /
b110000000000 2
1%
#550000
0%
#555000
01
b10 ,
1%
#560000
0%
#565000
r0.8243956043956043 '
r2.475604395604396 (
11
b1111111111 $
b1111111111 .
b110000000000 #
b110000000000 /
b111000000000 2
1%
#570000
0%
#575000
0&
01
b11 ,
1%
#580000
0%
#585000
r0.4117948717948718 '
r2.888205128205128 (
11
0-
b111111111 $
b111111111 .
b111000000000 #
b111000000000 /
b111100000000 2
1%
#590000
0%
#595000
01
b100 ,
b111000000000 2
1%
#600000
0%
#605000
11
b111010000000 2
1%
#610000
0%
#615000
01
b101 ,
b111000000000 2
1%
#620000
0%
#625000
11
b111001000000 2
1%
#630000
0%
#635000
01
b110 ,
b111000000000 2
1%
#640000
0%
#645000
11
b111000100000 2
1%
#650000
0%
#655000
01
b111 ,
b111000000000 2
1%
#660000
0%
#665000
11
b111000010000 2
1%
#670000
0%
#675000
01
b1000 ,
b111000000000 2
1%
#680000
0%
#685000
11
b111000001000 2
1%
#690000
0%
#695000
01
b1001 ,
b111000000000 2
1%
#700000
0%
#705000
11
b111000000100 2
1%
#710000
0%
#715000
01
b1010 ,
b111000000000 2
1%
#720000
0%
#725000
11
b111000000010 2
1%
#730000
0%
#735000
01
b1011 ,
b111000000000 2
1%
#740000
0%
#745000
11
b111000000001 2
1%
#750000
0%
#755000
01
03
b111000000001 "
b111000000001 0
b1100 ,
b111000000000 2
1%
#760000
0%
#765000
r0 '
r0 (
13
b0 $
b0 .
b0 #
b0 /
b0 2
b0 ,
1!
1%
#770000
0%
#775000
r3.3 '
11
b111111111111 $
b111111111111 .
b100000000000 2
0!
1%
#780000
0%
#785000
01
b1 ,
b0 2
1&
1%
#790000
0%
#795000
11
1-
b10000000000 2
1%
#800000
0%
#805000
01
b10 ,
1%
#810000
0%
#815000
r2.474798534798535 '
r0.8252014652014652 (
11
b101111111111 $
b101111111111 .
b10000000000 #
b10000000000 /
b11000000000 2
1%
#820000
0%
#825000
01
b11 ,
1%
#830000
0%
#835000
r2.062197802197802 '
r1.237802197802198 (
11
b100111111111 $
b100111111111 .
b11000000000 #
b11000000000 /
b11100000000 2
1%
#840000
0%
#845000
01
b100 ,
1%
#850000
0%
#855000
r1.855897435897436 '
r1.444102564102564 (
11
b100011111111 $
b100011111111 .
b11100000000 #
b11100000000 /
b11110000000 2
1%
#860000
0%
#865000
01
b101 ,
1%
#870000
0%
#875000
r1.752747252747253 '
r1.547252747252747 (
11
b100001111111 $
b100001111111 .
b11110000000 #
b11110000000 /
b11111000000 2
1%
#880000
0%
#885000
01
b110 ,
1%
#890000
0%
#895000
r1.701172161172161 '
r1.598827838827839 (
11
b100000111111 $
b100000111111 .
b11111000000 #
b11111000000 /
b11111100000 2
1%
#900000
0%
#905000
01
b111 ,
1%
#910000
0%
#915000
r1.675384615384615 '
r1.624615384615385 (
11
b100000011111 $
b100000011111 .
b11111100000 #
b11111100000 /
b11111110000 2
1%
#920000
0%
#925000
01
b1000 ,
1%
#930000
0%
#935000
r1.662490842490842 '
r1.637509157509157 (
11
b100000001111 $
b100000001111 .
b11111110000 #
b11111110000 /
b11111111000 2
1%
#940000
0%
#945000
01
b1001 ,
1%
#950000
0%
#955000
r1.656043956043956 '
r1.643956043956044 (
11
b100000000111 $
b100000000111 .
b11111111000 #
b11111111000 /
b11111111100 2
1%
#960000
0%
#965000
01
b1010 ,
1%
#970000
0%
#975000
r1.652820512820513 '
r1.647179487179487 (
11
b100000000011 $
b100000000011 .
b11111111100 #
b11111111100 /
b11111111110 2
1%
#980000
0%
#985000
01
b1011 ,
1%
#990000
0%
#995000
r1.651208791208791 '
r1.648791208791209 (
11
b100000000001 $
b100000000001 .
b11111111110 #
b11111111110 /
b11111111111 2
1%
#1000000
0%
#1005000
01
03
b11111111111 "
b11111111111 0
b1100 ,
1%
#1010000
0%
#1015000
r0 '
r0 (
13
b0 $
b0 .
b0 #
b0 /
b0 2
b0 ,
1!
1%
#1020000
0%
#1025000
r3.3 '
11
b111111111111 $
b111111111111 .
b100000000000 2
0!
1%
#1030000
0%
#1035000
01
b1 ,
1%
#1040000
0%
#1045000
r1.649597069597069 '
r1.65040293040293 (
11
b11111111111 $
b11111111111 .
b100000000000 #
b100000000000 /
b110000000000 2
1%
#1050000
0%
#1055000
01
b10 ,
1%
#1060000
0%
#1065000
r0.8243956043956043 '
r2.475604395604396 (
11
b1111111111 $
b1111111111 .
b110000000000 #
b110000000000 /
b111000000000 2
1%
#1070000
0%
#1075000
0&
01
b11 ,
1%
#1080000
0%
#1085000
r0.4117948717948718 '
r2.888205128205128 (
11
0-
b111111111 $
b111111111 .
b111000000000 #
b111000000000 /
b111100000000 2
1%
#1090000
0%
#1095000
01
b100 ,
b111000000000 2
1%
#1100000
0%
#1105000
11
b111010000000 2
1%
#1110000
0%
#1115000
01
b101 ,
b111000000000 2
1%
#1120000
0%
#1125000
11
b111001000000 2
1%
#1130000
0%
#1135000
01
b110 ,
b111000000000 2
1%
#1140000
0%
#1145000
11
b111000100000 2
1%
#1150000
0%
#1155000
01
b111 ,
b111000000000 2
1%
#1160000
0%
#1165000
11
b111000010000 2
1%
#1170000
0%
#1175000
01
b1000 ,
b111000000000 2
1%
#1180000
0%
#1185000
11
b111000001000 2
1%
#1190000
0%
#1195000
01
b1001 ,
b111000000000 2
1%
#1200000
0%
#1205000
11
b111000000100 2
1%
#1210000
0%
#1215000
01
b1010 ,
b111000000000 2
1%
#1220000
0%
#1225000
11
b111000000010 2
1%
#1230000
0%
#1235000
01
b1011 ,
b111000000000 2
1%
#1240000
0%
#1245000
11
b111000000001 2
1%
#1250000
0%
#1255000
01
03
b111000000001 "
b111000000001 0
b1100 ,
b111000000000 2
1%
#1260000
0%
#1265000
r0 '
r0 (
13
b0 $
b0 .
b0 #
b0 /
b0 2
b0 ,
1!
1%
#1270000
0%
#1275000
r3.3 '
11
b111111111111 $
b111111111111 .
b100000000000 2
0!
1%
#1280000
0%
#1285000
01
b1 ,
b0 2
1&
1%
#1290000
0%
#1295000
11
1-
b10000000000 2
1%
#1300000
0%
#1305000
01
b10 ,
1%
#1310000
0%
#1315000
r2.474798534798535 '
r0.8252014652014652 (
11
b101111111111 $
b101111111111 .
b10000000000 #
b10000000000 /
b11000000000 2
1%
#1320000
0%
#1325000
01
b11 ,
1%
#1330000
0%
#1335000
r2.062197802197802 '
r1.237802197802198 (
11
b100111111111 $
b100111111111 .
b11000000000 #
b11000000000 /
b11100000000 2
1%
#1340000
0%
#1345000
01
b100 ,
1%
#1350000
0%
#1355000
r1.855897435897436 '
r1.444102564102564 (
11
b100011111111 $
b100011111111 .
b11100000000 #
b11100000000 /
b11110000000 2
1%
#1360000
0%
#1365000
01
b101 ,
1%
#1370000
0%
#1375000
r1.752747252747253 '
r1.547252747252747 (
11
b100001111111 $
b100001111111 .
b11110000000 #
b11110000000 /
b11111000000 2
1%
#1380000
0%
#1385000
01
b110 ,
1%
#1390000
0%
#1395000
r1.701172161172161 '
r1.598827838827839 (
11
b100000111111 $
b100000111111 .
b11111000000 #
b11111000000 /
b11111100000 2
1%
#1400000
0%
#1405000
01
b111 ,
1%
#1410000
0%
#1415000
r1.675384615384615 '
r1.624615384615385 (
11
b100000011111 $
b100000011111 .
b11111100000 #
b11111100000 /
b11111110000 2
1%
#1420000
0%
#1425000
01
b1000 ,
1%
#1430000
0%
#1435000
r1.662490842490842 '
r1.637509157509157 (
11
b100000001111 $
b100000001111 .
b11111110000 #
b11111110000 /
b11111111000 2
1%
#1440000
0%
#1445000
01
b1001 ,
1%
#1450000
0%
#1455000
r1.656043956043956 '
r1.643956043956044 (
11
b100000000111 $
b100000000111 .
b11111111000 #
b11111111000 /
b11111111100 2
1%
#1460000
0%
#1465000
01
b1010 ,
1%
#1470000
0%
#1475000
r1.652820512820513 '
r1.647179487179487 (
11
b100000000011 $
b100000000011 .
b11111111100 #
b11111111100 /
b11111111110 2
1%
#1480000
0%
#1485000
01
b1011 ,
1%
#1490000
0%
#1495000
r1.651208791208791 '
r1.648791208791209 (
11
b100000000001 $
b100000000001 .
b11111111110 #
b11111111110 /
b11111111111 2
1%
#1500000
0%
#1505000
01
03
b11111111111 "
b11111111111 0
b1100 ,
1%
#1510000
0%
#1515000
r0 '
r0 (
13
b0 $
b0 .
b0 #
b0 /
b0 2
b0 ,
1!
1%
#1520000
0%
#1525000
r3.3 '
11
b111111111111 $
b111111111111 .
b100000000000 2
0!
1%
#1530000
0%
#1535000
01
b1 ,
1%
#1540000
0%
#1545000
r1.649597069597069 '
r1.65040293040293 (
11
b11111111111 $
b11111111111 .
b100000000000 #
b100000000000 /
b110000000000 2
1%
#1550000
0%
#1555000
01
b10 ,
1%
#1560000
0%
#1565000
r0.8243956043956043 '
r2.475604395604396 (
11
b1111111111 $
b1111111111 .
b110000000000 #
b110000000000 /
b111000000000 2
1%
#1570000
0%
#1575000
0&
01
b11 ,
1%
#1580000
0%
#1585000
r0.4117948717948718 '
r2.888205128205128 (
11
0-
b111111111 $
b111111111 .
b111000000000 #
b111000000000 /
b111100000000 2
1%
#1590000
0%
#1595000
01
b100 ,
b111000000000 2
1%
#1600000
0%
#1605000
11
b111010000000 2
1%
#1610000
0%
#1615000
01
b101 ,
b111000000000 2
1%
#1620000
0%
#1625000
11
b111001000000 2
1%
#1630000
0%
#1635000
01
b110 ,
b111000000000 2
1%
#1640000
0%
#1645000
11
b111000100000 2
1%
#1650000
0%
#1655000
01
b111 ,
b111000000000 2
1%
#1660000
0%
#1665000
11
b111000010000 2
1%
#1670000
0%
#1675000
01
b1000 ,
b111000000000 2
1%
#1680000
0%
#1685000
11
b111000001000 2
1%
#1690000
0%
#1695000
01
b1001 ,
b111000000000 2
1%
#1700000
0%
#1705000
11
b111000000100 2
1%
#1710000
0%
#1715000
01
b1010 ,
b111000000000 2
1%
#1720000
0%
#1725000
11
b111000000010 2
1%
#1730000
0%
#1735000
01
b1011 ,
b111000000000 2
1%
#1740000
0%
#1745000
11
b111000000001 2
1%
#1750000
0%
#1755000
01
03
b111000000001 "
b111000000001 0
b1100 ,
b111000000000 2
1%
#1760000
0%
#1765000
r0 '
r0 (
13
b0 $
b0 .
b0 #
b0 /
b0 2
b0 ,
1!
1%
#1770000
0%
#1775000
r3.3 '
11
b111111111111 $
b111111111111 .
b100000000000 2
0!
1%
#1780000
0%
#1785000
01
b1 ,
b0 2
1&
1%
#1790000
0%
#1795000
11
1-
b10000000000 2
1%
#1800000
0%
#1805000
01
b10 ,
1%
#1810000
0%
#1815000
r2.474798534798535 '
r0.8252014652014652 (
11
b101111111111 $
b101111111111 .
b10000000000 #
b10000000000 /
b11000000000 2
1%
#1820000
0%
#1825000
01
b11 ,
1%
#1830000
0%
#1835000
r2.062197802197802 '
r1.237802197802198 (
11
b100111111111 $
b100111111111 .
b11000000000 #
b11000000000 /
b11100000000 2
1%
#1840000
0%
#1845000
01
b100 ,
1%
#1850000
0%
#1855000
r1.855897435897436 '
r1.444102564102564 (
11
b100011111111 $
b100011111111 .
b11100000000 #
b11100000000 /
b11110000000 2
1%
#1860000
0%
#1865000
01
b101 ,
1%
#1870000
0%
#1875000
r1.752747252747253 '
r1.547252747252747 (
11
b100001111111 $
b100001111111 .
b11110000000 #
b11110000000 /
b11111000000 2
1%
#1880000
0%
#1885000
01
b110 ,
1%
#1890000
0%
#1895000
r1.701172161172161 '
r1.598827838827839 (
11
b100000111111 $
b100000111111 .
b11111000000 #
b11111000000 /
b11111100000 2
1%
#1900000
0%
#1905000
01
b111 ,
1%
#1910000
0%
#1915000
r1.675384615384615 '
r1.624615384615385 (
11
b100000011111 $
b100000011111 .
b11111100000 #
b11111100000 /
b11111110000 2
1%
#1920000
0%
#1925000
01
b1000 ,
1%
#1930000
0%
#1935000
r1.662490842490842 '
r1.637509157509157 (
11
b100000001111 $
b100000001111 .
b11111110000 #
b11111110000 /
b11111111000 2
1%
#1940000
0%
#1945000
01
b1001 ,
1%
#1950000
0%
#1955000
r1.656043956043956 '
r1.643956043956044 (
11
b100000000111 $
b100000000111 .
b11111111000 #
b11111111000 /
b11111111100 2
1%
#1960000
0%
#1965000
01
b1010 ,
1%
#1970000
0%
#1975000
r1.652820512820513 '
r1.647179487179487 (
11
b100000000011 $
b100000000011 .
b11111111100 #
b11111111100 /
b11111111110 2
1%
#1980000
0%
#1985000
01
b1011 ,
1%
#1990000
0%
#1995000
r1.651208791208791 '
r1.648791208791209 (
11
b100000000001 $
b100000000001 .
b11111111110 #
b11111111110 /
b11111111111 2
1%
#2000000
0%
#2005000
01
03
b11111111111 "
b11111111111 0
b1100 ,
1%
#2010000
0%
#2015000
r0 '
r0 (
13
b0 $
b0 .
b0 #
b0 /
b0 2
b0 ,
1!
1%
#2020000
0%
#2025000
r3.3 '
11
b111111111111 $
b111111111111 .
b100000000000 2
0!
1%
#2030000
0%
#2035000
01
b1 ,
1%
#2040000
0%
#2045000
r1.649597069597069 '
r1.65040293040293 (
11
b11111111111 $
b11111111111 .
b100000000000 #
b100000000000 /
b110000000000 2
1%
#2050000
0%
#2055000
01
b10 ,
1%
#2060000
0%
#2065000
r0.8243956043956043 '
r2.475604395604396 (
11
b1111111111 $
b1111111111 .
b110000000000 #
b110000000000 /
b111000000000 2
1%
#2070000
0%
#2075000
0&
01
b11 ,
1%
#2080000
0%
#2085000
r0.4117948717948718 '
r2.888205128205128 (
11
0-
b111111111 $
b111111111 .
b111000000000 #
b111000000000 /
b111100000000 2
1%
#2090000
0%
#2095000
01
b100 ,
b111000000000 2
1%
#2100000
0%
#2105000
11
b111010000000 2
1%
#2110000
0%
#2115000
01
b101 ,
b111000000000 2
1%
#2120000
0%
#2125000
11
b111001000000 2
1%
#2130000
0%
#2135000
01
b110 ,
b111000000000 2
1%
#2140000
0%
#2145000
11
b111000100000 2
1%
#2150000
0%
#2155000
01
b111 ,
b111000000000 2
1%
#2160000
0%
#2165000
11
b111000010000 2
1%
#2170000
0%
#2175000
01
b1000 ,
b111000000000 2
1%
#2180000
0%
#2185000
11
b111000001000 2
1%
#2190000
0%
#2195000
01
b1001 ,
b111000000000 2
1%
#2200000
0%
#2205000
11
b111000000100 2
1%
#2210000
0%
#2215000
01
b1010 ,
b111000000000 2
1%
#2220000
0%
#2225000
11
b111000000010 2
1%
#2230000
0%
#2235000
01
b1011 ,
b111000000000 2
1%
#2240000
0%
#2245000
11
b111000000001 2
1%
#2250000
0%
#2255000
01
03
b111000000001 "
b111000000001 0
b1100 ,
b111000000000 2
1%
#2260000
0%
#2265000
r0 '
r0 (
13
b0 $
b0 .
b0 #
b0 /
b0 2
b0 ,
1!
1%
#2270000
0%
#2275000
r3.3 '
11
b111111111111 $
b111111111111 .
b100000000000 2
0!
1%
#2280000
0%
#2285000
01
b1 ,
b0 2
1&
1%
#2290000
0%
#2295000
11
1-
b10000000000 2
1%
#2300000
0%
#2305000
01
b10 ,
1%
#2310000
0%
#2315000
r2.474798534798535 '
r0.8252014652014652 (
11
b101111111111 $
b101111111111 .
b10000000000 #
b10000000000 /
b11000000000 2
1%
#2320000
0%
#2325000
01
b11 ,
1%
#2330000
0%
#2335000
r2.062197802197802 '
r1.237802197802198 (
11
b100111111111 $
b100111111111 .
b11000000000 #
b11000000000 /
b11100000000 2
1%
#2340000
0%
#2345000
01
b100 ,
1%
#2350000
0%
#2355000
r1.855897435897436 '
r1.444102564102564 (
11
b100011111111 $
b100011111111 .
b11100000000 #
b11100000000 /
b11110000000 2
1%
#2360000
0%
#2365000
01
b101 ,
1%
#2370000
0%
#2375000
r1.752747252747253 '
r1.547252747252747 (
11
b100001111111 $
b100001111111 .
b11110000000 #
b11110000000 /
b11111000000 2
1%
#2380000
0%
#2385000
01
b110 ,
1%
#2390000
0%
#2395000
r1.701172161172161 '
r1.598827838827839 (
11
b100000111111 $
b100000111111 .
b11111000000 #
b11111000000 /
b11111100000 2
1%
#2400000
0%
#2405000
01
b111 ,
1%
#2410000
0%
#2415000
r1.675384615384615 '
r1.624615384615385 (
11
b100000011111 $
b100000011111 .
b11111100000 #
b11111100000 /
b11111110000 2
1%
#2420000
0%
#2425000
01
b1000 ,
1%
#2430000
0%
#2435000
r1.662490842490842 '
r1.637509157509157 (
11
b100000001111 $
b100000001111 .
b11111110000 #
b11111110000 /
b11111111000 2
1%
#2440000
0%
#2445000
01
b1001 ,
1%
#2450000
0%
#2455000
r1.656043956043956 '
r1.643956043956044 (
11
b100000000111 $
b100000000111 .
b11111111000 #
b11111111000 /
b11111111100 2
1%
#2460000
0%
#2465000
01
b1010 ,
1%
#2470000
0%
#2475000
r1.652820512820513 '
r1.647179487179487 (
11
b100000000011 $
b100000000011 .
b11111111100 #
b11111111100 /
b11111111110 2
1%
#2480000
0%
#2485000
01
b1011 ,
1%
#2490000
0%
#2495000
r1.651208791208791 '
r1.648791208791209 (
11
b100000000001 $
b100000000001 .
b11111111110 #
b11111111110 /
b11111111111 2
1%
#2500000
0%
#2505000
01
03
b11111111111 "
b11111111111 0
b1100 ,
1%
#2510000
0%
#2515000
r0 '
r0 (
13
b0 $
b0 .
b0 #
b0 /
b0 2
b0 ,
1!
1%
#2520000
0%
#2525000
r3.3 '
11
b111111111111 $
b111111111111 .
b100000000000 2
0!
1%
#2530000
0%
#2535000
01
b1 ,
1%
#2540000
0%
#2545000
r1.649597069597069 '
r1.65040293040293 (
11
b11111111111 $
b11111111111 .
b100000000000 #
b100000000000 /
b110000000000 2
1%
#2550000
0%
#2555000
01
b10 ,
1%
#2560000
0%
#2565000
r0.8243956043956043 '
r2.475604395604396 (
11
b1111111111 $
b1111111111 .
b110000000000 #
b110000000000 /
b111000000000 2
1%
#2570000
0%
#2575000
0&
01
b11 ,
1%
#2580000
0%
#2585000
r0.4117948717948718 '
r2.888205128205128 (
11
0-
b111111111 $
b111111111 .
b111000000000 #
b111000000000 /
b111100000000 2
1%
#2590000
0%
#2595000
01
b100 ,
b111000000000 2
1%
#2600000
0%
#2605000
11
b111010000000 2
1%
#2610000
0%
#2615000
01
b101 ,
b111000000000 2
1%
#2620000
0%
#2625000
11
b111001000000 2
1%
#2630000
0%
#2635000
01
b110 ,
b111000000000 2
1%
#2640000
0%
#2645000
11
b111000100000 2
1%
#2650000
0%
#2655000
01
b111 ,
b111000000000 2
1%
#2660000
0%
#2665000
11
b111000010000 2
1%
#2670000
0%
#2675000
01
b1000 ,
b111000000000 2
1%
#2680000
0%
#2685000
11
b111000001000 2
1%
#2690000
0%
#2695000
01
b1001 ,
b111000000000 2
1%
#2700000
0%
#2705000
11
b111000000100 2
1%
#2710000
0%
#2715000
01
b1010 ,
b111000000000 2
1%
#2720000
0%
#2725000
11
b111000000010 2
1%
#2730000
0%
#2735000
01
b1011 ,
b111000000000 2
1%
#2740000
0%
#2745000
11
b111000000001 2
1%
#2750000
0%
#2755000
01
03
b111000000001 "
b111000000001 0
b1100 ,
b111000000000 2
1%
#2760000
0%
#2765000
r0 '
r0 (
13
b0 $
b0 .
b0 #
b0 /
b0 2
b0 ,
1!
1%
#2770000
0%
#2775000
r3.3 '
11
b111111111111 $
b111111111111 .
b100000000000 2
0!
1%
#2780000
0%
#2785000
01
b1 ,
b0 2
1&
1%
#2790000
0%
#2795000
11
1-
b10000000000 2
1%
#2800000
0%
#2805000
01
b10 ,
1%
#2810000
0%
#2815000
r2.474798534798535 '
r0.8252014652014652 (
11
b101111111111 $
b101111111111 .
b10000000000 #
b10000000000 /
b11000000000 2
1%
#2820000
0%
#2825000
01
b11 ,
1%
#2830000
0%
#2835000
r2.062197802197802 '
r1.237802197802198 (
11
b100111111111 $
b100111111111 .
b11000000000 #
b11000000000 /
b11100000000 2
1%
#2840000
0%
#2845000
01
b100 ,
1%
#2850000
0%
#2855000
r1.855897435897436 '
r1.444102564102564 (
11
b100011111111 $
b100011111111 .
b11100000000 #
b11100000000 /
b11110000000 2
1%
#2860000
0%
#2865000
01
b101 ,
1%
#2870000
0%
#2875000
r1.752747252747253 '
r1.547252747252747 (
11
b100001111111 $
b100001111111 .
b11110000000 #
b11110000000 /
b11111000000 2
1%
#2880000
0%
#2885000
01
b110 ,
1%
#2890000
0%
#2895000
r1.701172161172161 '
r1.598827838827839 (
11
b100000111111 $
b100000111111 .
b11111000000 #
b11111000000 /
b11111100000 2
1%
#2900000
0%
#2905000
01
b111 ,
1%
#2910000
0%
#2915000
r1.675384615384615 '
r1.624615384615385 (
11
b100000011111 $
b100000011111 .
b11111100000 #
b11111100000 /
b11111110000 2
1%
#2920000
0%
#2925000
01
b1000 ,
1%
#2930000
0%
#2935000
r1.662490842490842 '
r1.637509157509157 (
11
b100000001111 $
b100000001111 .
b11111110000 #
b11111110000 /
b11111111000 2
1%
#2940000
0%
#2945000
01
b1001 ,
1%
#2950000
0%
#2955000
r1.656043956043956 '
r1.643956043956044 (
11
b100000000111 $
b100000000111 .
b11111111000 #
b11111111000 /
b11111111100 2
1%
#2960000
0%
#2965000
01
b1010 ,
1%
#2970000
0%
#2975000
r1.652820512820513 '
r1.647179487179487 (
11
b100000000011 $
b100000000011 .
b11111111100 #
b11111111100 /
b11111111110 2
1%
#2980000
0%
#2985000
01
b1011 ,
1%
#2990000
0%
#2995000
r1.651208791208791 '
r1.648791208791209 (
11
b100000000001 $
b100000000001 .
b11111111110 #
b11111111110 /
b11111111111 2
1%
#3000000
0%
#3005000
01
03
b11111111111 "
b11111111111 0
b1100 ,
1%
#3010000
0%
#3015000
r0 '
r0 (
13
b0 $
b0 .
b0 #
b0 /
b0 2
b0 ,
1!
1%
#3020000
0%
#3025000
r3.3 '
11
b111111111111 $
b111111111111 .
b100000000000 2
0!
1%
#3030000
0%
#3035000
01
b1 ,
1%
#3040000
0%
#3045000
r1.649597069597069 '
r1.65040293040293 (
11
b11111111111 $
b11111111111 .
b100000000000 #
b100000000000 /
b110000000000 2
1%
#3050000
0%
#3055000
01
b10 ,
1%
#3060000
0%
#3065000
r0.8243956043956043 '
r2.475604395604396 (
11
b1111111111 $
b1111111111 .
b110000000000 #
b110000000000 /
b111000000000 2
1%
#3070000
0%
#3075000
0&
01
b11 ,
1%
#3080000
0%
#3085000
r0.4117948717948718 '
r2.888205128205128 (
11
0-
b111111111 $
b111111111 .
b111000000000 #
b111000000000 /
b111100000000 2
1%
#3090000
0%
#3095000
01
b100 ,
b111000000000 2
1%
#3100000
0%
#3105000
11
b111010000000 2
1%
#3110000
0%
#3115000
01
b101 ,
b111000000000 2
1%
#3120000
0%
#3125000
11
b111001000000 2
1%
#3130000
0%
#3135000
01
b110 ,
b111000000000 2
1%
#3140000
0%
#3145000
11
b111000100000 2
1%
#3150000
0%
#3155000
01
b111 ,
b111000000000 2
1%
#3160000
0%
#3165000
11
b111000010000 2
1%
#3170000
0%
#3175000
01
b1000 ,
b111000000000 2
1%
#3180000
0%
#3185000
11
b111000001000 2
1%
#3190000
0%
#3195000
01
b1001 ,
b111000000000 2
1%
#3200000
0%
#3205000
11
b111000000100 2
1%
#3210000
0%
#3215000
01
b1010 ,
b111000000000 2
1%
#3220000
0%
#3225000
11
b111000000010 2
1%
#3230000
0%
#3235000
01
b1011 ,
b111000000000 2
1%
#3240000
0%
#3245000
11
b111000000001 2
1%
#3250000
0%
#3255000
01
03
b111000000001 "
b111000000001 0
b1100 ,
b111000000000 2
1%
#3260000
0%
#3265000
r0 '
r0 (
13
b0 $
b0 .
b0 #
b0 /
b0 2
b0 ,
1!
1%
#3270000
0%
#3275000
r3.3 '
11
b111111111111 $
b111111111111 .
b100000000000 2
0!
1%
#3280000
0%
#3285000
01
b1 ,
b0 2
1&
1%
#3290000
0%
#3295000
11
1-
b10000000000 2
1%
#3300000
0%
#3305000
01
b10 ,
1%
#3310000
0%
#3315000
r2.474798534798535 '
r0.8252014652014652 (
11
b101111111111 $
b101111111111 .
b10000000000 #
b10000000000 /
b11000000000 2
1%
#3320000
0%
#3325000
01
b11 ,
1%
#3330000
0%
